[
  {
    "title":"Mazda 6 2020",
    "price":36000,
    "link":"https://atlanticexpress.com.ua/wp-content/uploads/2020/04/7fa1fcadbc.jpg",
    "code":"000001",
    "color":"red"
  },
  {
    "title":"Mazda 3 2020",
    "price":24000,
    "link":"https://upload.wikimedia.org/wikipedia/commons/8/88/2019_Mazda3_SE-L_2.0_Front.jpg",
    "code":"000002",
    "color":"red"
  },
  {
    "title":"Ford Fusion Titanium 2015",
    "price":15000,
    "link":"https://ireland.apollo.olxcdn.com/v1/files/1yp2crgqmqhc3-UA/image",
    "code":"000003",
    "color":"silver"
  },
  {
    "title":"Ford Fusion SE 2020",
    "price":20000,
    "link":"https://www.pellcityford.com/inventoryphotos/4889/3fa6p0hd4lr246749/sp/1.jpg?height=400",
    "code":"000004",
    "color":"black"
  },
  {
    "title":"Nissan Altima 2015",
    "price":11500,
    "link":"https://cdn3.riastatic.com/photosnew/auto/photo/nissan_altima__343533848bx.jpg",
    "code":"000005",
    "color":"white"
  },
  {
    "title":"BMW 328 2011",
    "price":13000,
    "link":"https://cdn0.riastatic.com/photosnew/auto/photo/bmw_328__277783985bx.jpg",
    "code":"000006",
    "color":"silver"
  },
  {
    "title":"BMW 528 2013",
    "price":16800,
    "link":"https://cdn2.riastatic.com/photosnew/auto/photo/bmw_528__341831022bx.jpg",
    "code":"000007",
    "color":"dark blue"
  },
  {
    "title":"Mercedes E220 2013",
    "price":23000,
    "link":"https://cdn0.riastatic.com/photosnew/auto/photo/mercedes-benz_e-220__345125560bx.jpg",
    "code":"000008",
    "color":"silver"
  },
  {
    "title":"Mercedes E220 2017",
    "price":30000,
    "link":"https://cdn.riastatic.com/photosnew/auto/photo/Mercedes-Benz_E-Class__188567118f.jpg",
    "code":"000009",
    "color":"white"
  },
  {
    "title":"Toyota Camry 2019",
    "price":28000,
    "link":"https://cdn.riastatic.com/photosnew/auto/photo/Toyota_Camry__315330991f.jpg",
    "code":"000010",
    "color":"black"
  }
]